module go-processors

go 1.18

require (
	github.com/arbovm/levenshtein v0.0.0-20160628152529-48b4e1c0c4d0
	github.com/jackc/pgconn v1.11.0
	github.com/jackc/pgx/v4 v4.15.0
	github.com/ka-weihe/fast-levenshtein v0.0.0-20201227151214-4c99ee36a1ba
)

require (
	github.com/jackc/chunkreader/v2 v2.0.1 // indirect
	github.com/jackc/pgio v1.0.0 // indirect
	github.com/jackc/pgpassfile v1.0.0 // indirect
	github.com/jackc/pgproto3/v2 v2.2.0 // indirect
	github.com/jackc/pgservicefile v0.0.0-20200714003250-2b9c44734f2b // indirect
	github.com/jackc/pgtype v1.10.0 // indirect
	github.com/jackc/puddle v1.2.1 // indirect
	github.com/kelindar/dbscan v0.0.1 // indirect
	golang.org/x/crypto v0.0.0-20210711020723-a769d52b0f97 // indirect
	golang.org/x/text v0.3.6 // indirect
)
